{
  /**
   * Application configuration section
   * http://pm2.keymetrics.io/docs/usage/application-declaration/
   */
  apps : [
    {
      name: 'TDC',
      script: 'bin/server.js',
      watch: false,
      instances: 1,
      exec_mode: 'fork',
      env_staging: {
        NODE_ENV: 'staging'
      },
      env_production: {
        NODE_ENV: 'production'
      }
    },
    {
      name: 'TDC Workers',
      script: 'workers/worker.js',
      watch: false,
      instances: 1,
      exec_mode: 'fork',
      env_staging: {
        NODE_ENV: 'staging'
      },
      env_production: {
        NODE_ENV: 'production'
      }
    }
  ],

  deploy: {
    staging : {
      user : "ubuntu",
      host : "34.212.243.114",
      port: "12345",
      ref  : "origin/master",
      repo : "git@gitlab.com:debtcollective/debtcollective.git",
      path : "/home/ubuntu/apps/tdc",
      "post-deploy" : "./scripts/post_deploy_staging"
    },

    production : {
      user: "ubuntu",
      host: "34.209.207.52",
      port: "12345",
      ref  : "origin/master",
      repo : "git@gitlab.com:debtcollective/debtcollective.git",
      path : "/home/ubuntu/apps/tdc",
      "post-deploy" : "./scripts/post_deploy_production"
    }
  }
}
